General Interface for Additive Linear State Space Regression Models — additive_state_space • bayesmodels
…
    Examples

# \donttest{
library(dplyr)
library(parsnip)
library(rsample)
library(timetk)
library(modeltime)
library(bayesmodels)

# Data
m750 <- m4_monthly %>% filter(id == "M750")
m750

#> # A tibble: 306 x 3
#>    id    date       value
#>    <fct> <date>     <dbl>
#>  1 M750  1990-01-01  6370
#>  2 M750  1990-02-01  6430
#>  3 M750  1990-03-01  6520
#>  4 M750  1990-04-01  6580
#>  5 M750  1990-05-01  6620
#>  6 M750  1990-06-01  6690
#>  7 M750  1990-07-01  6000
#>  8 M750  1990-08-01  5450
#>  9 M750  1990-09-01  6480
#> 10 M750  1990-10-01  6820
#> # … with 296 more rows
…
predict(model_fit, testing(splits))

#> # A tibble: 62 x 1
#>    .pred
#>    <dbl>
#>  1  9.29
#>  2  9.29
#>  3  9.29
#>  4  9.28
#>  5  9.29
#>  6  9.28
#>  7  9.28
#>  8  9.29
#>  9  9.29
#> 10  9.29
#> # … with 52 more rows
…
