Getting Started with garchmodels • garchmodels
…
garch_multivariate_reg: This function implements the multivariate methods and connects to the rugarch and rmgarch packages. The engines you can currently connect to are the following: rugarch, dcc_rmgarch, c_rmgarch and gogarch_rmgarch.

Univariate Example

First, we load the necessary packages:

library(garchmodels)
library(timetk)
library(tidymodels)
library(tidyverse)

The data we will use is IBM’s daily returns from March 2007 through December 2020. The data is contained in a tibble that comes with the garchmodels package itself.

rIBM
#> # A tibble: 3,523 x 2
#>    date       daily_returns
#>    <date>             <dbl>
#>  1 2007-01-03      0.000926
#>  2 2007-01-04      0.0107  
#>  3 2007-01-05     -0.00905 
#>  4 2007-01-08      0.0152  
#>  5 2007-01-09      0.0118  
#>  6 2007-01-10     -0.0118  
#>  7 2007-01-11     -0.00243 
#>  8 2007-01-12      0.00699 
#>  9 2007-01-16      0.0149  
#> 10 2007-01-17     -0.00793 
#> # ... with 3,513 more rows
…
predict(model_fit_garch, rIBM_future)
#> # A tibble: 3 x 1
#>       .pred
#>       <dbl>
#> 1  0.00147 
#> 2 -0.000101
#> 3 -0.000608

Multivariate Example

For this section, we will work with the daily returns of IBM, Google and BP from 2007 to 2020. To work with multivariate models, the input format should be like this table:

rX_longer
#> # A tibble: 8,550 x 3
#>    id        value date      
#>    <chr>     <dbl> <date>    
#>  1 rIBM   0.000926 2007-01-03
#>  2 rBP   -0.0192   2007-01-03
#>  3 rGOOG  0.00341  2007-01-03
#>  4 rIBM   0.0107   2007-01-04
#>  5 rBP   -0.0132   2007-01-04
#>  6 rGOOG  0.0335   2007-01-04
#>  7 rIBM  -0.00905  2007-01-05
#>  8 rBP   -0.00215  2007-01-05
#>  9 rGOOG  0.00813  2007-01-05
#> 10 rIBM   0.0152   2007-01-08
#> # ... with 8,540 more rows
…
