General Interface for GARCH Models — garch_reg • garchmodels
…
rIBM_train  <- rIBM_extended %>% drop_na()
rIBM_future <- rIBM_extended %>% filter(is.na(daily_returns))

model_garch_fit <-garchmodels::garch_reg(mode = "regression",
                                          arch_order = 1,
                                          garch_order = 1) %>%
    set_engine("rugarch") %>%
    fit(daily_returns ~ date, data = rIBM_train)

#> frequency = 5 observations per 1 week

predict(model_garch_fit, rIBM_future)

#> # A tibble: 24 x 1
#>       .pred
#>       <dbl>
#>  1 0.000527
#>  2 0.000298
#>  3 0.000381
#>  4 0.000351
#>  5 0.000362
#>  6 0.000358
#>  7 0.000359
#>  8 0.000359
#>  9 0.000359
#> 10 0.000359
#> # ... with 14 more rows

model_garch_fit <-garchmodels::garch_reg(mode = "regression",
                                        arch_order = 2,
                                        garch_order = 2) %>%
    set_engine("rugarch", variance.model = list(model='gjrGARCH', 
                                                garchOrder=c(1,1)),
               mean.model     = list(armaOrder=c(0,0))) %>%
    fit(daily_returns ~ date, data = rIBM_train)

#> frequency = 5 observations per 1 week

predict(model_garch_fit, rIBM_future)

#> # A tibble: 24 x 1
#>       .pred
#>       <dbl>
#>  1 0.000453
#>  2 0.000168
#>  3 0.000269
#>  4 0.000233
#>  5 0.000246
#>  6 0.000242
#>  7 0.000243
#>  8 0.000243
#>  9 0.000243
#> 10 0.000243
#> # ... with 14 more rows
…
